OFF
447 898 0
-0.193127 0.066315 0.349240
-0.236797 0.015313 0.316273
-0.214720 0.015203 0.374161
-0.122356 -0.042525 -0.244251
-0.109380 -0.041514 -0.199886
-0.148483 -0.069250 -0.225265
-0.229584 -0.043650 -0.250875
-0.227091 -0.043871 -0.308431
-0.201340 -0.070830 -0.270330
0.193127 0.066315 -0.349240
0.236797 0.015313 -0.316273
0.214720 0.015203 -0.374161
-0.108034 -0.015290 0.286318
-0.091129 0.000205 0.322400
-0.091584 -0.028435 0.330507
-0.117240 0.027902 0.263865
-0.098774 0.028764 0.320716
-0.043745 0.000113 0.358932
0.122356 -0.042525 0.244251
0.109380 -0.041514 0.199886
0.148483 -0.069250 0.225265
0.117365 0.029066 0.274731
0.112650 0.000764 0.268704
0.091510 0.028661 0.330536
0.106919 -0.017598 0.296052
0.112501 0.029427 0.214335
0.104553 0.001720 0.211251
0.119854 0.054039 0.314476
0.134682 0.054062 0.246484
0.139580 0.071459 0.324689
0.157216 0.071046 0.245232
0.111048 -0.071410 0.151511
0.072145 -0.052976 0.145240
0.067260 -0.026653 0.159535
0.016679 0.000263 0.144728
0.069480 0.001467 0.166527
0.078129 0.028679 0.165774
0.055533 0.043972 0.142594
0.114030 0.053191 0.183583
0.132300 0.070511 0.172194
0.066408 0.072769 0.112665
0.182880 0.077035 0.246568
0.229584 -0.043650 0.250875
0.227091 -0.043871 0.308431
0.201340 -0.070830 0.270330
0.108034 -0.015290 -0.286318
0.091129 0.000205 -0.322400
0.091584 -0.028435 -0.330507
0.117240 0.027902 -0.263865
0.098774 0.028764 -0.320716
0.043745 0.000113 -0.358932
-0.117365 0.029066 -0.274731
-0.112650 0.000764 -0.268704
-0.091510 0.028661 -0.330536
-0.106919 -0.017598 -0.296052
-0.112501 0.029427 -0.214335
-0.104553 0.001720 -0.211251
-0.119854 0.054039 -0.314476
-0.134682 0.054062 -0.246484
-0.139580 0.071459 -0.324689
-0.157216 0.071046 -0.245232
-0.072145 -0.052976 -0.145240
-0.067260 -0.026653 -0.159535
-0.016679 0.000263 -0.144728
-0.069480 0.001467 -0.166527
-0.078129 0.028679 -0.165774
-0.055533 0.043972 -0.142594
-0.114030 0.053191 -0.183583
-0.132300 0.070511 -0.172194
-0.066408 0.072769 -0.112665
-0.182880 0.077035 -0.246568
0.003417 -0.014653 0.499953
-0.067313 0.014873 0.490898
-0.051296 -0.044322 0.483565
-0.009656 0.044248 0.488861
0.051265 0.044511 0.483569
0.067310 -0.014689 0.490890
0.014763 0.000093 0.366767
0.021306 -0.028548 0.371163
-0.051474 0.071274 0.403438
-0.011679 0.044474 0.377875
-0.061110 0.054095 0.373468
-0.051189 0.028808 0.361536
-0.113096 0.053943 0.326115
-0.131618 0.071399 0.338214
-0.016926 0.077778 0.437286
-0.123619 0.077794 0.387451
-0.140547 0.071887 0.405098
-0.126516 0.014972 0.465443
-0.070531 0.054664 0.469165
-0.045638 0.071842 0.455175
-0.111172 -0.000862 0.238784
-0.103935 0.027092 0.203309
-0.118081 -0.028990 0.243559
-0.119941 -0.053753 0.314439
-0.068739 -0.068686 0.390190
-0.139783 -0.071270 0.324585
-0.078724 -0.077581 0.420633
-0.040608 -0.001091 0.151679
-0.006474 0.027369 0.138989
-0.064337 0.027059 0.158590
-0.096603 -0.029218 0.187188
-0.087620 -0.001514 0.185718
-0.134093 -0.053827 0.246057
-0.156632 -0.071069 0.245245
-0.161696 -0.077542 0.337764
-0.181744 -0.076895 0.225204
-0.152159 -0.071676 0.393754
-0.061774 -0.071645 0.450800
-0.168618 0.054664 0.405152
-0.123927 0.054664 0.443404
-0.176897 0.015193 0.425242
-0.229263 0.043816 0.250443
-0.204263 0.054501 0.184843
-0.221288 0.030127 0.186591
-0.049084 -0.028336 0.148599
0.006940 -0.053514 0.124233
0.009912 -0.027355 0.139023
-0.059559 -0.052588 0.136104
-0.069747 -0.071193 0.115051
0.010884 -0.076074 0.101284
0.064208 -0.075195 0.115066
0.078724 -0.077581 -0.420633
-0.064360 -0.077606 -0.426677
-0.045668 -0.071649 -0.455165
0.061774 -0.071645 -0.450800
0.068739 -0.068686 -0.390190
-0.014763 0.000093 -0.366767
-0.021306 -0.028548 -0.371163
-0.069809 -0.000009 -0.343744
-0.077520 -0.028635 -0.344300
0.042186 -0.053785 -0.381298
0.040561 -0.028438 -0.365858
-0.027917 -0.053884 -0.385196
-0.032218 -0.071314 -0.406960
-0.090041 -0.053892 -0.353378
-0.104758 -0.071349 -0.369972
-0.147672 -0.070703 -0.302189
-0.127213 -0.053272 -0.295259
-0.177985 -0.075834 -0.246262
-0.153920 -0.077469 -0.350112
-0.140205 -0.071721 -0.405164
-0.123888 -0.054469 -0.443404
-0.168579 -0.054469 -0.404762
-0.089422 0.084836 -0.087783
-0.148983 0.077301 -0.155338
-0.130747 0.073971 -0.079098
-0.198380 0.070615 -0.206609
-0.003417 -0.014653 -0.499953
0.067313 0.014873 -0.490898
0.051296 -0.044322 -0.483565
0.009656 0.044248 -0.488861
-0.051265 0.044511 -0.483569
-0.067310 -0.014689 -0.490890
0.051474 0.071274 -0.403438
0.011679 0.044474 -0.377875
0.061110 0.054095 -0.373468
0.051189 0.028808 -0.361536
0.113096 0.053943 -0.326115
0.131618 0.071399 -0.338214
0.016926 0.077778 -0.437286
0.123619 0.077794 -0.387451
0.140547 0.071887 -0.405098
0.126516 0.014972 -0.465443
0.070531 0.054664 -0.469165
0.045638 0.071842 -0.455175
-0.070836 0.053288 0.144711
0.130747 0.073971 0.079098
0.154051 0.054750 0.064135
0.108709 0.081251 -0.005000
0.205201 -0.054073 0.186425
0.221975 -0.029853 0.187632
0.230811 0.000235 0.192547
0.187549 -0.000468 0.077166
0.230913 0.028134 0.206596
0.195805 0.025353 0.113603
0.061688 0.071855 0.450784
0.225995 0.053806 0.269126
0.205308 0.070980 0.270843
0.215652 0.054313 0.324863
0.198380 0.070615 0.206609
0.183540 0.071757 0.349269
0.103044 0.054703 0.455504
0.134309 0.071682 0.409055
0.115066 0.029567 0.466042
0.151756 0.054703 0.421936
0.166003 0.029559 0.428962
0.190203 0.054625 0.377283
0.205543 0.029446 0.380250
0.064360 -0.077606 0.426677
0.045668 -0.071649 0.455165
0.069809 -0.000009 0.343744
0.077520 -0.028635 0.344300
-0.042186 -0.053785 0.381298
-0.040561 -0.028438 0.365858
0.027917 -0.053884 0.385196
0.032218 -0.071314 0.406960
0.090041 -0.053892 0.353378
0.104758 -0.071349 0.369972
0.147672 -0.070703 0.302189
0.127213 -0.053272 0.295259
0.177985 -0.075834 0.246262
0.153920 -0.077469 0.350112
0.140205 -0.071721 0.405164
0.123888 -0.054469 0.443404
0.168579 -0.054469 0.404762
0.183763 -0.071331 0.343404
0.201093 -0.054430 0.356870
0.012174 -0.054469 0.479703
0.070492 -0.054469 0.469165
0.123653 0.000143 0.467213
0.126776 -0.029290 0.459016
0.175410 -0.029297 0.419204
0.174512 0.000133 0.427791
0.211632 -0.029356 0.368774
0.213271 0.000028 0.377244
0.236729 -0.000214 0.319672
0.230757 0.029137 0.324239
0.242896 -0.000555 0.259602
0.239344 0.028634 0.265222
0.199063 0.053298 0.158977
0.219633 0.053298 0.213349
0.111172 -0.000862 -0.238784
0.103935 0.027092 -0.203309
0.118081 -0.028990 -0.243559
0.119941 -0.053753 -0.314439
0.139783 -0.071270 -0.324585
0.040608 -0.001091 -0.151679
0.006474 0.027369 -0.138989
0.064337 0.027059 -0.158590
0.096603 -0.029218 -0.187188
0.087620 -0.001514 -0.185718
0.134093 -0.053827 -0.246057
0.156632 -0.071069 -0.245245
0.161696 -0.077542 -0.337764
0.181744 -0.076895 -0.225204
0.152159 -0.071676 -0.393754
0.168618 0.054664 -0.405152
0.123927 0.054664 -0.443404
0.176897 0.015193 -0.425242
0.229263 0.043816 -0.250443
0.204263 0.054501 -0.184843
0.221288 0.030127 -0.186591
0.089422 0.084836 0.087783
0.148983 0.077301 0.155338
-0.061688 0.071855 -0.450784
-0.205201 -0.054073 -0.186425
-0.221975 -0.029853 -0.187632
-0.230811 0.000235 -0.192547
-0.187549 -0.000468 -0.077166
-0.230913 0.028134 -0.206596
-0.195805 0.025353 -0.113603
-0.225995 0.053806 -0.269126
-0.205308 0.070980 -0.270843
-0.215652 0.054313 -0.324863
-0.183540 0.071757 -0.349269
-0.103044 0.054703 -0.455504
-0.134309 0.071682 -0.409055
-0.115066 0.029567 -0.466042
-0.151756 0.054703 -0.421936
-0.166003 0.029559 -0.428962
-0.190203 0.054625 -0.377283
-0.205543 0.029446 -0.380250
-0.183763 -0.071331 -0.343404
-0.201093 -0.054430 -0.356870
-0.012174 -0.054469 -0.479703
-0.070492 -0.054469 -0.469165
-0.123653 0.000143 -0.467213
-0.126776 -0.029290 -0.459016
-0.175410 -0.029297 -0.419204
-0.174512 0.000133 -0.427791
-0.211632 -0.029356 -0.368774
-0.213271 0.000028 -0.377244
-0.236729 -0.000214 -0.319672
-0.230757 0.029137 -0.324239
-0.242896 -0.000555 -0.259602
-0.239344 0.028634 -0.265222
-0.199063 0.053298 -0.158977
-0.154051 0.054750 -0.064135
-0.219633 0.053298 -0.213349
-0.108709 0.081251 0.005000
-0.152707 0.070372 0.263920
-0.131586 0.052963 0.262137
-0.085285 0.072778 0.126957
-0.130377 0.078643 0.137373
-0.132698 0.069937 0.185709
-0.114654 0.052357 0.194471
-0.218384 0.054469 0.303552
-0.201131 0.071128 0.270003
-0.171760 0.077349 0.309162
-0.171111 0.076245 0.223634
-0.111048 -0.071410 -0.151511
-0.131198 -0.078763 -0.139298
-0.135082 -0.071895 0.082591
-0.155013 -0.054050 0.062498
-0.109518 -0.080499 0.003782
-0.197084 -0.070768 0.204512
-0.202174 -0.071434 0.297844
-0.225059 -0.053923 0.268033
-0.231616 0.000775 0.198361
-0.188528 0.001833 0.078150
-0.229899 -0.028263 0.204957
-0.194436 -0.025458 0.109043
-0.115105 -0.029356 0.466042
-0.103084 -0.054508 0.455504
-0.151795 -0.054508 0.422326
-0.166003 -0.029364 0.428962
-0.205386 -0.029309 0.380172
-0.190125 -0.054469 0.377205
-0.215222 -0.054313 0.324434
-0.230289 -0.029118 0.323770
-0.242272 0.000519 0.258860
-0.238486 -0.028739 0.264208
-0.198829 -0.053064 0.157338
-0.218618 -0.053415 0.211749
-0.164871 0.030933 -0.031148
-0.171897 0.000092 -0.002021
-0.138212 0.060597 0.000884
-0.178337 0.031245 0.074668
-0.157494 0.041862 0.029813
-0.075963 0.094600 -0.013042
0.152707 0.070372 -0.263920
0.131586 0.052963 -0.262137
0.070836 0.053288 -0.144711
0.085285 0.072778 -0.126957
0.130377 0.078643 -0.137373
0.132698 0.069937 -0.185709
0.114654 0.052357 -0.194471
0.218384 0.054469 -0.303552
0.201131 0.071128 -0.270003
0.171760 0.077349 -0.309162
0.171111 0.076245 -0.223634
0.135082 -0.071895 -0.082591
0.155013 -0.054050 -0.062498
0.109518 -0.080499 -0.003782
0.075963 0.094600 0.013042
0.194436 -0.025458 -0.109043
0.164871 -0.030788 -0.027533
0.188528 0.001833 -0.078150
0.171897 0.000092 0.002021
0.138564 -0.060363 0.002074
0.179157 -0.030968 0.078142
0.158041 -0.041628 0.033450
0.042085 0.053940 0.381266
0.040471 0.028630 0.365833
0.049329 0.071444 0.402262
0.089144 0.066508 0.368252
0.161380 0.077711 0.338183
0.097485 0.077771 0.407340
0.197084 -0.070768 -0.204512
0.202174 -0.071434 -0.297844
0.225059 -0.053923 -0.268033
0.231616 0.000775 -0.198361
0.229899 -0.028263 -0.204957
0.115105 -0.029356 -0.466042
0.103084 -0.054508 -0.455504
0.151795 -0.054508 -0.422326
0.166003 -0.029364 -0.428962
0.205386 -0.029309 -0.380172
0.190125 -0.054469 -0.377205
0.215222 -0.054313 -0.324434
0.230289 -0.029118 -0.323770
0.242272 0.000519 -0.258860
0.238486 -0.028739 -0.264208
0.198829 -0.053064 -0.157338
0.218618 -0.053415 -0.211749
0.164871 0.030933 0.031148
0.138212 0.060597 -0.000884
0.178337 0.031245 -0.074668
0.157494 0.041862 -0.029813
0.131198 -0.078763 0.139298
0.078259 -0.088505 0.085363
-0.112106 -0.053467 0.182295
-0.130580 -0.070469 0.170441
-0.107539 -0.079004 0.102761
-0.084682 -0.089243 0.045045
0.049084 -0.028336 -0.148599
-0.006940 -0.053514 -0.124233
-0.009912 -0.027355 -0.139023
0.059559 -0.052588 -0.136104
0.069747 -0.071193 -0.115051
-0.010884 -0.076074 -0.101284
0.013620 -0.092970 -0.067033
-0.064208 -0.075195 -0.115066
0.112106 -0.053467 -0.182295
0.130580 -0.070469 -0.170441
0.107539 -0.079004 -0.102761
0.084682 -0.089243 -0.045045
0.024285 -0.100338 -0.035804
-0.042085 0.053940 -0.381266
-0.040471 0.028630 -0.365833
-0.049329 0.071444 -0.402262
-0.089144 0.066508 -0.368252
-0.161380 0.077711 -0.338183
-0.097485 0.077771 -0.407340
-0.164871 -0.030788 0.027533
-0.138564 -0.060363 -0.002074
-0.179157 -0.030968 -0.078142
-0.158041 -0.041628 -0.033450
-0.181238 0.070663 0.182229
-0.139735 0.076210 0.107182
-0.160773 0.058958 0.090320
-0.135988 0.068794 0.054215
-0.006757 0.053977 0.123829
-0.020415 0.076271 0.101549
-0.080278 0.085841 0.090316
-0.000654 0.092672 0.070206
-0.027796 0.100485 0.037640
-0.082553 0.091159 0.054450
-0.112607 0.083158 0.076112
0.006757 0.053977 -0.123829
0.020415 0.076271 -0.101549
0.000654 0.092672 -0.070206
0.080278 0.085841 -0.090316
0.027796 0.100485 -0.037640
0.182496 -0.070122 0.184183
0.139930 -0.076327 0.108626
0.161827 -0.058607 0.093443
0.136105 -0.068755 0.055542
0.181238 0.070663 -0.182229
0.139735 0.076210 -0.107182
0.160773 0.058958 -0.090320
0.135988 0.068794 -0.054215
0.021439 -0.092776 0.071723
-0.051249 -0.087100 0.078415
-0.024285 -0.100338 0.035804
-0.078259 -0.088505 -0.085363
-0.039422 -0.099863 -0.039813
0.040671 -0.101230 -0.001216
0.039422 -0.099863 0.039813
0.000000 -0.104040 0.000000
-0.040671 -0.101230 0.001216
-0.182496 -0.070122 -0.184183
-0.139930 -0.076327 -0.108626
-0.161827 -0.058607 -0.093443
-0.136105 -0.068755 -0.055542
0.000000 0.104040 0.000000
0.042076 0.098927 0.040047
0.043247 0.101112 -0.001633
-0.042076 0.098927 -0.040047
-0.043247 0.101112 0.001633
0.082553 0.091159 -0.054450
0.112607 0.083158 -0.076112
0.076932 -0.094165 0.036042
0.109953 -0.084368 0.072092
-0.076932 -0.094165 -0.036042
-0.109953 -0.084368 -0.072092
3 0 1 2
3 3 4 5
3 6 7 8
3 9 10 11
3 12 13 14
3 13 12 15
3 16 13 15
3 17 13 16
3 18 19 20
3 21 22 23
3 22 19 18
3 24 22 18
3 22 24 23
3 25 26 21
3 22 26 19
3 26 22 21
3 27 21 23
3 28 29 30
3 28 25 21
3 28 21 27
3 28 27 29
3 19 31 20
3 32 19 33
3 31 19 32
3 19 26 33
3 34 35 36
3 36 35 25
3 26 35 33
3 35 26 25
3 37 34 36
3 38 30 39
3 37 38 39
3 37 39 40
3 37 36 38
3 38 36 25
3 38 25 28
3 30 38 28
3 30 41 39
3 42 43 44
3 45 46 47
3 46 45 48
3 49 46 48
3 50 46 49
3 51 52 53
3 52 4 3
3 54 52 3
3 52 54 53
3 55 56 51
3 52 56 4
3 56 52 51
3 57 51 53
3 58 59 60
3 58 55 51
3 58 51 57
3 58 57 59
3 61 4 62
3 4 56 62
3 63 64 65
3 65 64 55
3 56 64 62
3 64 56 55
3 66 63 65
3 67 60 68
3 66 67 68
3 66 68 69
3 66 65 67
3 67 65 55
3 67 55 58
3 60 67 58
3 60 70 68
3 71 72 73
3 72 71 74
3 74 71 75
3 71 76 75
3 17 77 78
3 79 80 81
3 81 80 82
3 80 77 82
3 77 17 82
3 17 16 82
3 81 83 84
3 81 84 79
3 81 82 83
3 82 16 83
3 85 86 87
3 87 86 0
3 86 85 79
3 84 86 79
3 88 72 89
3 74 90 89
3 72 74 89
3 90 85 87
3 91 92 15
3 91 12 93
3 12 91 15
3 93 12 94
3 94 12 14
3 94 95 96
3 95 97 96
3 94 14 95
3 98 99 100
3 98 34 99
3 99 34 37
3 101 102 93
3 98 102 101
3 102 98 100
3 92 102 100
3 91 102 92
3 102 91 93
3 103 96 104
3 103 101 93
3 103 93 94
3 103 94 96
3 105 106 104
3 96 105 104
3 105 97 107
3 107 97 108
3 97 105 96
3 87 0 109
3 0 2 109
3 110 109 111
3 109 2 111
3 110 111 88
3 110 88 89
3 110 89 90
3 110 87 109
3 110 90 87
3 112 113 114
3 34 98 115
3 98 101 115
3 116 117 118
3 119 116 118
3 33 117 116
3 32 33 116
3 35 117 33
3 35 34 117
3 117 34 115
3 118 117 115
3 116 119 120
3 32 120 121
3 32 116 120
3 121 31 32
3 122 123 124
3 125 122 124
3 123 122 126
3 50 127 128
3 127 129 130
3 128 127 130
3 130 129 54
3 54 129 53
3 131 47 132
3 131 126 47
3 47 46 132
3 46 50 132
3 132 50 128
3 133 134 131
3 134 123 126
3 131 134 126
3 132 133 131
3 133 132 128
3 135 133 128
3 135 128 130
3 123 134 136
3 135 136 133
3 136 134 133
3 5 137 138
3 138 137 135
3 139 137 5
3 135 137 136
3 130 138 135
3 138 130 54
3 3 138 54
3 3 5 138
3 137 140 136
3 139 140 137
3 140 139 8
3 123 140 141
3 140 123 136
3 124 123 141
3 142 141 143
3 142 124 141
3 144 145 146
3 145 144 69
3 68 145 69
3 70 145 68
3 145 70 147
3 146 145 147
3 148 149 150
3 149 148 151
3 151 148 152
3 148 153 152
3 154 155 156
3 156 155 157
3 155 127 157
3 127 50 157
3 50 49 157
3 156 158 159
3 156 159 154
3 156 157 158
3 157 49 158
3 160 161 162
3 162 161 9
3 161 160 154
3 159 161 154
3 163 149 164
3 151 165 164
3 149 151 164
3 165 160 162
3 166 92 100
3 167 168 169
3 42 170 171
3 42 44 170
3 171 172 42
3 173 172 171
3 174 172 175
3 172 173 175
3 176 85 90
3 74 176 90
3 176 74 75
3 177 178 179
3 177 180 178
3 180 41 178
3 41 181 178
3 178 181 179
3 182 183 176
3 182 75 184
3 182 176 75
3 75 76 184
3 185 181 183
3 184 186 185
3 182 185 183
3 182 184 185
3 181 187 179
3 187 181 185
3 187 186 188
3 187 188 179
3 186 187 185
3 97 189 190
3 108 97 190
3 189 97 95
3 77 191 192
3 78 77 192
3 192 191 24
3 24 191 23
3 193 14 194
3 193 95 14
3 14 13 194
3 13 17 194
3 194 17 78
3 195 196 193
3 196 189 95
3 193 196 95
3 194 195 193
3 195 194 78
3 197 195 78
3 197 78 192
3 189 196 198
3 197 198 195
3 198 196 195
3 20 199 200
3 200 199 197
3 201 199 20
3 197 199 198
3 192 200 197
3 200 192 24
3 18 200 24
3 18 20 200
3 199 202 198
3 201 202 199
3 202 201 44
3 189 202 203
3 202 189 198
3 190 189 203
3 204 203 205
3 204 190 203
3 206 202 44
3 207 206 43
3 43 206 44
3 207 203 206
3 203 202 206
3 203 207 205
3 76 208 209
3 208 76 71
3 208 71 73
3 108 208 73
3 208 190 209
3 208 108 190
3 204 209 190
3 210 76 211
3 76 210 184
3 211 76 209
3 210 186 184
3 204 211 209
3 212 213 211
3 186 213 188
3 210 213 186
3 213 210 211
3 204 212 211
3 204 205 212
3 214 215 212
3 213 215 188
3 215 213 212
3 205 214 212
3 207 214 205
3 207 43 214
3 43 216 214
3 215 216 217
3 216 215 214
3 177 179 217
3 179 188 217
3 188 215 217
3 218 216 43
3 218 43 42
3 172 218 42
3 218 172 174
3 216 218 219
3 218 174 219
3 177 217 219
3 217 216 219
3 220 174 175
3 220 175 168
3 167 220 168
3 220 180 221
3 220 167 180
3 177 221 180
3 174 220 221
3 177 219 221
3 219 174 221
3 222 223 48
3 222 45 224
3 45 222 48
3 224 45 225
3 225 45 47
3 225 126 226
3 126 122 226
3 225 47 126
3 227 228 229
3 227 63 228
3 228 63 66
3 230 231 224
3 227 231 230
3 231 227 229
3 223 231 229
3 222 231 223
3 231 222 224
3 232 226 233
3 232 230 224
3 232 224 225
3 232 225 226
3 234 235 233
3 226 234 233
3 234 122 236
3 236 122 125
3 122 234 226
3 162 9 237
3 9 11 237
3 238 237 239
3 237 11 239
3 238 239 163
3 238 163 164
3 238 164 165
3 238 162 237
3 238 165 162
3 240 241 242
3 243 244 167
3 244 243 40
3 39 244 40
3 41 244 39
3 244 41 180
3 167 244 180
3 245 160 165
3 151 245 165
3 245 151 152
3 6 246 247
3 6 8 246
3 247 248 6
3 249 248 247
3 250 248 251
3 248 249 251
3 252 253 254
3 252 147 253
3 147 70 253
3 70 255 253
3 253 255 254
3 256 257 245
3 256 152 258
3 256 245 152
3 152 153 258
3 259 255 257
3 258 260 259
3 256 259 257
3 256 258 259
3 255 261 254
3 261 255 259
3 261 260 262
3 261 262 254
3 260 261 259
3 263 140 8
3 264 263 7
3 7 263 8
3 264 141 263
3 141 140 263
3 141 264 143
3 153 265 266
3 265 153 148
3 265 148 150
3 125 265 150
3 265 124 266
3 265 125 124
3 142 266 124
3 267 153 268
3 153 267 258
3 268 153 266
3 267 260 258
3 142 268 266
3 269 270 268
3 260 270 262
3 267 270 260
3 270 267 268
3 142 269 268
3 142 143 269
3 271 272 269
3 270 272 262
3 272 270 269
3 143 271 269
3 264 271 143
3 264 7 271
3 7 273 271
3 272 273 274
3 273 272 271
3 252 254 274
3 254 262 274
3 262 272 274
3 275 250 276
3 273 275 276
3 252 274 276
3 274 273 276
3 275 273 7
3 275 7 6
3 248 275 6
3 275 248 250
3 277 250 251
3 277 251 278
3 146 277 278
3 277 147 279
3 277 146 147
3 252 279 147
3 250 277 279
3 252 276 279
3 276 250 279
3 146 278 280
3 281 83 282
3 83 16 282
3 282 16 15
3 83 281 84
3 283 284 285
3 282 286 285
3 282 285 281
3 282 15 286
3 15 92 286
3 286 92 166
3 286 283 285
3 283 286 166
3 112 1 287
3 287 0 288
3 1 0 287
3 112 287 288
3 112 288 113
3 289 290 288
3 0 289 288
3 86 289 0
3 289 86 84
3 290 289 281
3 281 289 84
3 285 290 281
3 284 290 285
3 291 292 5
3 292 139 5
3 4 291 5
3 291 4 61
3 293 294 295
3 296 106 297
3 106 105 297
3 298 296 297
3 297 105 107
3 114 299 112
3 300 299 114
3 301 299 302
3 299 300 302
3 72 88 303
3 304 107 108
3 304 73 303
3 73 72 303
3 304 108 73
3 304 305 107
3 303 306 305
3 304 303 305
3 88 306 303
3 88 111 306
3 306 111 307
3 111 2 307
3 308 297 107
3 308 107 305
3 308 306 307
3 306 308 305
3 298 297 309
3 297 308 309
3 298 309 310
3 309 307 310
3 308 307 309
3 307 2 310
3 2 1 310
3 299 311 112
3 311 301 312
3 311 299 301
3 298 310 312
3 1 311 312
3 311 1 112
3 310 1 312
3 313 301 302
3 313 302 294
3 293 313 294
3 313 296 314
3 313 293 296
3 298 314 296
3 301 313 314
3 298 312 314
3 312 301 314
3 278 251 315
3 251 249 315
3 249 316 315
3 278 315 317
3 280 278 317
3 316 300 318
3 318 300 114
3 113 318 114
3 316 318 319
3 317 315 319
3 315 316 319
3 144 146 320
3 320 146 280
3 321 158 322
3 158 49 322
3 322 49 48
3 158 321 159
3 323 223 229
3 324 325 326
3 322 327 326
3 322 326 321
3 322 48 327
3 48 223 327
3 327 223 323
3 327 324 326
3 324 327 323
3 240 10 328
3 328 9 329
3 10 9 328
3 240 328 329
3 240 329 241
3 330 331 329
3 9 330 329
3 161 330 9
3 330 161 159
3 331 330 321
3 321 330 159
3 326 331 321
3 325 331 326
3 332 333 334
3 243 167 335
3 335 167 169
3 333 336 337
3 336 338 337
3 338 339 337
3 333 337 340
3 334 333 340
3 341 173 171
3 170 341 171
3 339 341 342
3 339 173 341
3 340 337 342
3 337 339 342
3 343 23 344
3 80 79 343
3 23 191 344
3 191 77 344
3 344 80 343
3 344 77 80
3 343 79 345
3 79 85 345
3 343 345 346
3 27 346 29
3 27 23 346
3 343 346 23
3 347 348 183
3 181 347 183
3 41 347 181
3 347 41 30
3 348 347 29
3 29 347 30
3 346 348 29
3 348 346 345
3 85 348 345
3 348 85 176
3 183 348 176
3 349 235 350
3 235 234 350
3 351 349 350
3 350 234 236
3 242 352 240
3 338 352 242
3 353 352 336
3 352 338 336
3 149 163 354
3 355 236 125
3 355 150 354
3 150 149 354
3 355 125 150
3 355 356 236
3 354 357 356
3 355 354 356
3 163 357 354
3 163 239 357
3 357 239 358
3 239 11 358
3 359 350 236
3 359 236 356
3 359 357 358
3 357 359 356
3 351 350 360
3 350 359 360
3 351 360 361
3 360 358 361
3 359 358 360
3 358 11 361
3 11 10 361
3 10 362 363
3 361 10 363
3 362 10 240
3 352 362 240
3 362 353 363
3 351 361 363
3 362 352 353
3 364 353 336
3 364 336 333
3 332 364 333
3 364 349 365
3 364 332 349
3 351 365 349
3 353 364 365
3 351 363 365
3 363 353 365
3 168 175 366
3 175 173 366
3 173 339 366
3 168 366 367
3 169 168 367
3 339 338 368
3 368 338 242
3 241 368 242
3 339 368 369
3 367 366 369
3 366 339 369
3 370 201 20
3 371 370 31
3 31 370 20
3 371 31 121
3 372 104 373
3 104 106 373
3 118 372 373
3 118 373 119
3 118 115 372
3 115 101 372
3 372 101 103
3 104 372 103
3 374 293 375
3 373 374 119
3 106 374 373
3 374 106 296
3 293 374 296
3 375 293 295
3 63 227 376
3 227 230 376
3 377 378 379
3 380 377 379
3 62 378 377
3 61 62 377
3 64 378 62
3 64 63 378
3 378 63 376
3 379 378 376
3 377 380 381
3 381 382 383
3 380 382 381
3 61 381 383
3 61 377 381
3 383 291 61
3 384 233 385
3 233 235 385
3 379 384 385
3 379 385 380
3 379 376 384
3 376 230 384
3 384 230 232
3 233 384 232
3 386 332 387
3 385 386 380
3 235 386 385
3 386 235 349
3 332 386 349
3 387 332 334
3 386 387 382
3 386 382 380
3 382 387 388
3 389 53 390
3 155 154 389
3 53 129 390
3 129 127 390
3 390 155 389
3 390 127 155
3 389 154 391
3 154 160 391
3 389 391 392
3 57 392 59
3 57 53 392
3 389 392 53
3 393 394 257
3 255 393 257
3 70 393 255
3 393 70 60
3 394 393 59
3 59 393 60
3 392 394 59
3 394 392 391
3 160 394 391
3 394 160 245
3 257 394 245
3 294 302 395
3 302 300 395
3 300 316 395
3 294 395 396
3 295 294 396
3 397 249 247
3 246 397 247
3 316 397 398
3 316 249 397
3 396 395 398
3 395 316 398
3 288 399 113
3 290 399 288
3 399 284 400
3 290 284 399
3 318 113 401
3 113 399 401
3 401 399 400
3 402 280 317
3 402 319 401
3 402 401 400
3 319 318 401
3 402 317 319
3 403 40 404
3 166 403 404
3 166 404 283
3 166 100 403
3 100 99 403
3 403 99 37
3 40 403 37
3 405 406 407
3 406 405 404
3 405 284 283
3 404 405 283
3 40 406 404
3 243 406 40
3 405 408 409
3 408 405 407
3 320 408 407
3 409 408 280
3 408 320 280
3 402 409 280
3 402 400 409
3 400 284 409
3 284 405 409
3 410 69 411
3 323 410 411
3 323 411 324
3 323 229 410
3 229 228 410
3 410 228 66
3 69 410 66
3 412 413 411
3 413 325 324
3 411 413 324
3 69 412 411
3 144 412 69
3 413 412 414
3 415 370 416
3 44 415 170
3 201 415 44
3 201 370 415
3 341 170 417
3 170 415 417
3 417 415 416
3 418 334 340
3 418 342 417
3 418 417 416
3 342 341 417
3 418 340 342
3 329 419 241
3 331 419 329
3 419 325 420
3 331 325 419
3 368 241 421
3 241 419 421
3 421 419 420
3 422 169 367
3 422 369 421
3 422 421 420
3 369 368 421
3 422 367 369
3 423 371 121
3 424 423 120
3 120 423 121
3 119 424 120
3 374 424 119
3 374 375 424
3 423 424 425
3 424 375 425
3 426 292 291
3 426 291 383
3 426 382 427
3 427 382 388
3 382 426 383
3 388 387 428
3 371 423 429
3 429 423 425
3 430 427 388
3 430 388 428
3 430 431 427
3 430 428 429
3 430 425 431
3 430 429 425
3 425 375 431
3 432 292 433
3 8 432 246
3 139 432 8
3 139 292 432
3 397 246 434
3 246 432 434
3 434 432 433
3 435 295 396
3 435 398 434
3 435 434 433
3 398 397 434
3 435 396 398
3 436 437 438
3 437 436 407
3 406 437 407
3 243 437 406
3 438 437 335
3 437 243 335
3 335 414 438
3 414 436 438
3 436 439 440
3 439 436 414
3 412 439 414
3 144 439 412
3 440 439 320
3 439 144 320
3 320 407 440
3 407 436 440
3 413 441 442
3 441 413 414
3 335 441 414
3 442 441 169
3 441 335 169
3 422 442 169
3 422 420 442
3 420 325 442
3 325 413 442
3 387 443 428
3 444 443 334
3 443 387 334
3 418 444 334
3 371 443 444
3 443 371 429
3 428 443 429
3 418 416 444
3 416 370 444
3 370 371 444
3 375 445 431
3 446 445 295
3 445 375 295
3 435 446 295
3 426 445 446
3 445 426 427
3 431 445 427
3 435 433 446
3 433 292 446
3 292 426 446
