OFF
600 1204 0
0.134682 0.054062 0.246484
0.139580 0.071459 0.324689
0.157216 0.071046 0.245232
0.119854 0.054039 0.314476
0.114030 0.053191 0.183583
0.132300 0.070511 0.172194
0.182880 0.077035 0.246568
-0.042186 -0.053785 0.381298
-0.091584 -0.028435 0.330507
-0.040561 -0.028438 0.365858
0.027917 -0.053884 0.385196
0.032218 -0.071314 0.406960
0.021306 -0.028548 0.371163
0.090041 -0.053892 0.353378
0.077520 -0.028635 0.344300
0.104758 -0.071349 0.369972
-0.134682 0.054062 -0.246484
-0.139580 0.071459 -0.324689
-0.157216 0.071046 -0.245232
-0.119854 0.054039 -0.314476
-0.114030 0.053191 -0.183583
-0.132300 0.070511 -0.172194
-0.182880 0.077035 -0.246568
0.042186 -0.053785 -0.381298
0.091584 -0.028435 -0.330507
0.040561 -0.028438 -0.365858
-0.027917 -0.053884 -0.385196
-0.032218 -0.071314 -0.406960
-0.021306 -0.028548 -0.371163
-0.090041 -0.053892 -0.353378
-0.077520 -0.028635 -0.344300
-0.104758 -0.071349 -0.369972
-0.134093 -0.053827 0.246057
-0.139783 -0.071270 0.324585
-0.156632 -0.071069 0.245245
-0.119941 -0.053753 0.314439
-0.161696 -0.077542 0.337764
-0.103084 -0.054508 0.455504
-0.152159 -0.071676 0.393754
-0.061774 -0.071645 0.450800
-0.151795 -0.054508 0.422326
-0.115105 -0.029356 0.466042
-0.166003 -0.029364 0.428962
-0.190125 -0.054469 0.377205
-0.205386 -0.029309 0.380172
-0.225059 -0.053923 0.268033
-0.215222 -0.054313 0.324434
-0.230289 -0.029118 0.323770
-0.171760 0.077349 0.309162
-0.123619 0.077794 0.387451
-0.131618 0.071399 0.338214
-0.123927 0.054664 0.443404
-0.070531 0.054664 0.469165
-0.045638 0.071842 0.455175
-0.140547 0.071887 0.405098
-0.168618 0.054664 0.405152
-0.201132 0.054586 0.356987
-0.183841 0.071526 0.343560
-0.218384 0.054469 0.303552
-0.242272 0.000519 0.258860
-0.229899 -0.028263 0.204957
-0.238486 -0.028739 0.264208
-0.231616 0.000775 0.198361
-0.111048 -0.071410 -0.151511
-0.131198 -0.078763 -0.139298
-0.148483 -0.069250 -0.225265
-0.135082 -0.071895 0.082591
-0.155013 -0.054050 0.062498
-0.109518 -0.080499 0.003782
-0.164871 -0.030788 0.027533
-0.138564 -0.060363 -0.002074
-0.112106 -0.053467 0.182295
-0.130580 -0.070469 0.170441
-0.059559 -0.052588 0.136104
-0.069747 -0.071193 0.115051
-0.049084 -0.028336 0.148599
-0.096603 -0.029218 0.187188
0.006940 -0.053514 0.124233
0.009912 -0.027355 0.139023
0.067260 -0.026653 0.159535
0.072145 -0.052976 0.145240
0.010884 -0.076074 0.101284
0.064208 -0.075195 0.115066
0.111048 -0.071410 0.151511
0.148483 -0.069250 0.225265
0.147672 -0.070703 0.302189
0.127213 -0.053272 0.295259
0.153920 -0.077469 0.350112
0.123888 -0.054469 0.443404
0.140205 -0.071721 0.405164
0.168579 -0.054469 0.404762
0.045668 -0.071649 0.455165
0.067310 -0.014689 0.490890
0.012174 -0.054469 0.479703
0.070492 -0.054469 0.469165
0.003417 -0.014653 0.499953
-0.147672 -0.070703 -0.302189
-0.127213 -0.053272 -0.295259
-0.153920 -0.077469 -0.350112
-0.123888 -0.054469 -0.443404
-0.140205 -0.071721 -0.405164
-0.168579 -0.054469 -0.404762
-0.045668 -0.071649 -0.455165
-0.225995 0.053806 -0.269126
-0.205308 0.070980 -0.270843
-0.215652 0.054313 -0.324863
-0.183540 0.071757 -0.349269
-0.103044 0.054703 -0.455504
-0.134309 0.071682 -0.409055
-0.061688 0.071855 -0.450784
-0.151756 0.054703 -0.421936
-0.115066 0.029567 -0.466042
-0.166003 0.029559 -0.428962
-0.190203 0.054625 -0.377283
-0.205543 0.029446 -0.380250
-0.201093 -0.054430 -0.356870
-0.183763 -0.071331 -0.343404
-0.067310 -0.014689 -0.490890
-0.012174 -0.054469 -0.479703
-0.070492 -0.054469 -0.469165
-0.003417 -0.014653 -0.499953
0.061774 -0.071645 -0.450800
-0.123653 0.000143 -0.467213
-0.126776 -0.029290 -0.459016
-0.175410 -0.029297 -0.419204
-0.174512 0.000133 -0.427791
-0.211632 -0.029356 -0.368774
-0.213271 0.000028 -0.377244
-0.236729 -0.000214 -0.319672
-0.230757 0.029137 -0.324239
-0.089422 0.084836 -0.087783
-0.148983 0.077301 -0.155338
-0.130747 0.073971 -0.079098
0.225995 0.053806 0.269126
0.205308 0.070980 0.270843
0.215652 0.054313 0.324863
0.183540 0.071757 0.349269
-0.154051 0.054750 -0.064135
-0.108709 0.081251 0.005000
-0.075963 0.094600 -0.013042
0.089422 0.084836 0.087783
0.148983 0.077301 0.155338
0.130747 0.073971 0.079098
0.154051 0.054750 0.064135
0.108709 0.081251 -0.005000
0.075963 0.094600 0.013042
0.103044 0.054703 0.455504
0.134309 0.071682 0.409055
0.061688 0.071855 0.450784
0.151756 0.054703 0.421936
0.115066 0.029567 0.466042
0.166003 0.029559 0.428962
0.190203 0.054625 0.377283
0.205543 0.029446 0.380250
0.201093 -0.054430 0.356870
0.183763 -0.071331 0.343404
0.123653 0.000143 0.467213
0.126776 -0.029290 0.459016
0.175410 -0.029297 0.419204
0.174512 0.000133 0.427791
0.211632 -0.029356 0.368774
0.213271 0.000028 0.377244
0.236729 -0.000214 0.319672
0.230757 0.029137 0.324239
0.242896 -0.000555 0.259602
0.239344 0.028634 0.265222
0.230913 0.028134 0.206596
0.199063 0.053298 0.158977
0.219633 0.053298 0.213349
0.134093 -0.053827 -0.246057
0.139783 -0.071270 -0.324585
0.156632 -0.071069 -0.245245
0.119941 -0.053753 -0.314439
0.161696 -0.077542 -0.337764
0.103084 -0.054508 -0.455504
0.152159 -0.071676 -0.393754
0.151795 -0.054508 -0.422326
0.115105 -0.029356 -0.466042
0.166003 -0.029364 -0.428962
0.190125 -0.054469 -0.377205
0.205386 -0.029309 -0.380172
0.225059 -0.053923 -0.268033
0.215222 -0.054313 -0.324434
0.230289 -0.029118 -0.323770
0.171760 0.077349 -0.309162
0.123619 0.077794 -0.387451
0.131618 0.071399 -0.338214
0.123927 0.054664 -0.443404
0.070531 0.054664 -0.469165
0.045638 0.071842 -0.455175
0.140547 0.071887 -0.405098
0.168618 0.054664 -0.405152
0.201132 0.054586 -0.356987
0.183841 0.071526 -0.343560
0.218384 0.054469 -0.303552
0.242272 0.000519 -0.258860
0.229899 -0.028263 -0.204957
0.238486 -0.028739 -0.264208
0.231616 0.000775 -0.198361
0.135082 -0.071895 -0.082591
0.155013 -0.054050 -0.062498
0.109518 -0.080499 -0.003782
0.164871 -0.030788 -0.027533
0.138564 -0.060363 0.002074
0.112106 -0.053467 -0.182295
0.130580 -0.070469 -0.170441
0.059559 -0.052588 -0.136104
0.069747 -0.071193 -0.115051
0.049084 -0.028336 -0.148599
0.096603 -0.029218 -0.187188
-0.006940 -0.053514 -0.124233
-0.009912 -0.027355 -0.139023
-0.067260 -0.026653 -0.159535
-0.072145 -0.052976 -0.145240
0.161380 0.077711 0.338183
0.097485 0.077771 0.407340
-0.049548 -0.071266 0.402194
0.104176 -0.077615 0.401249
0.040379 -0.077587 0.431093
-0.242896 -0.000555 -0.259602
-0.230913 0.028134 -0.206596
-0.239344 0.028634 -0.265222
-0.199063 0.053298 -0.158977
-0.219633 0.053298 -0.213349
-0.161380 0.077711 -0.338183
-0.097485 0.077771 -0.407340
0.049548 -0.071266 -0.402194
-0.104176 -0.077615 -0.401249
-0.040379 -0.077587 -0.431093
-0.047112 -0.054508 0.475410
-0.056128 -0.029340 0.488290
-0.067313 0.014873 0.490898
0.047073 0.054703 0.475410
0.056089 0.029547 0.488290
-0.006850 0.029528 0.494536
-0.012182 0.054664 0.479703
-0.187549 -0.000468 -0.077166
-0.171897 0.000092 -0.002021
-0.164871 0.030933 -0.031148
-0.138212 0.060597 0.000884
-0.099219 -0.071448 0.373888
-0.086222 -0.054391 0.356401
-0.116159 -0.077576 0.392272
-0.054811 -0.077572 0.427145
-0.107539 -0.079004 0.102761
-0.084682 -0.089243 0.045045
-0.198829 -0.053064 0.157338
-0.218618 -0.053415 0.211749
-0.173389 -0.076748 0.203146
-0.180172 -0.077303 0.270062
-0.178337 0.031245 0.074668
-0.157494 0.041862 0.029813
-0.209133 -0.027943 0.146643
-0.184504 -0.028224 0.087822
-0.210383 0.000822 0.137158
-0.186963 0.000559 0.073692
-0.010884 -0.076074 -0.101284
-0.064208 -0.075195 -0.115066
0.078259 -0.088505 0.085363
0.131198 -0.078763 0.139298
-0.182496 -0.070122 -0.184183
-0.139930 -0.076327 -0.108626
0.047112 -0.054508 -0.475410
0.056128 -0.029340 -0.488290
0.067313 0.014873 -0.490898
-0.179157 -0.030968 -0.078142
-0.158041 -0.041628 -0.033450
-0.232279 -0.029442 -0.312217
-0.218462 -0.054313 -0.303513
-0.219906 -0.054040 -0.248361
-0.235792 -0.029512 -0.253552
-0.209992 0.027896 -0.149024
-0.184973 0.028279 -0.090906
-0.232436 -0.000854 -0.199844
-0.211241 -0.000854 -0.139617
-0.047073 0.054703 -0.475410
-0.056089 0.029547 -0.488290
0.006850 0.029528 -0.494536
0.012182 0.054664 -0.479703
0.187549 -0.000468 0.077166
0.171897 0.000092 0.002021
0.164871 0.030933 0.031148
0.138212 0.060597 -0.000884
-0.160773 0.058958 0.090320
-0.181238 0.070663 0.182229
-0.139735 0.076210 0.107182
-0.135988 0.068794 0.054215
-0.112607 0.083158 0.076112
-0.082553 0.091159 0.054450
0.182496 -0.070122 0.184183
0.139930 -0.076327 0.108626
0.179157 -0.030968 0.078142
0.158041 -0.041628 0.033450
0.232279 -0.029442 0.312217
0.218462 -0.054313 0.303513
0.219906 -0.054040 0.248361
0.235792 -0.029512 0.253552
0.209992 0.027896 0.149024
0.184973 0.028279 0.090906
0.232436 -0.000854 0.199844
0.211241 -0.000854 0.139617
0.201210 0.070511 0.219672
0.181850 0.070824 0.169243
0.099219 -0.071448 -0.373888
0.086222 -0.054391 -0.356401
0.116159 -0.077576 -0.392272
0.054811 -0.077572 -0.427145
0.107539 -0.079004 -0.102761
0.084682 -0.089243 -0.045045
0.198829 -0.053064 -0.157338
0.218618 -0.053415 -0.211749
0.173389 -0.076748 -0.203146
0.180172 -0.077303 -0.270062
0.178337 0.031245 -0.074668
0.157494 0.041862 -0.029813
0.209133 -0.027943 -0.146643
0.184504 -0.028224 -0.087822
0.210383 0.000822 -0.137158
0.186963 0.000559 -0.073692
-0.061110 0.054095 0.373468
-0.071509 0.071559 0.393061
0.042085 0.053940 0.381266
-0.015269 0.071682 0.408665
0.049329 0.071444 0.402262
-0.062373 0.077810 0.423107
0.007717 0.077772 0.435319
-0.201210 0.070511 -0.219672
-0.181850 0.070824 -0.169243
0.061110 0.054095 -0.373468
0.071509 0.071559 -0.393061
-0.042085 0.053940 -0.381266
0.015269 0.071682 -0.408665
-0.049329 0.071444 -0.402262
0.062373 0.077810 -0.423107
-0.007717 0.077772 -0.435319
0.021439 -0.092776 0.071723
-0.051249 -0.087100 0.078415
-0.024285 -0.100338 0.035804
-0.194028 -0.071370 0.321390
-0.204528 -0.071058 0.269945
-0.182006 -0.070394 0.168423
-0.200156 -0.070628 0.218306
-0.126815 0.029500 0.459016
-0.123692 0.000068 0.467213
-0.175449 0.029497 0.419204
-0.174512 0.000065 0.427791
-0.211593 0.029520 0.368813
-0.213154 0.000118 0.377166
-0.236378 0.000268 0.319360
-0.232084 0.029547 0.312100
-0.219633 0.054235 0.247970
-0.235402 0.029575 0.253044
-0.201913 0.029461 0.133138
-0.223263 0.029516 0.193482
-0.078259 -0.088505 -0.085363
-0.202732 -0.029274 -0.135519
-0.223927 -0.029430 -0.194770
-0.161827 -0.058607 -0.093443
-0.136105 -0.068755 -0.055542
0.000000 0.104040 0.000000
-0.042076 0.098927 -0.040047
-0.043247 0.101112 0.001633
0.042076 0.098927 0.040047
0.043247 0.101112 -0.001633
-0.198126 0.071214 0.294770
-0.198009 0.070785 0.244106
-0.171111 0.076245 0.223634
-0.185480 0.054664 0.137627
-0.206831 0.054001 0.191998
-0.046994 0.097717 0.042194
-0.004524 0.100839 0.038661
0.160773 0.058958 -0.090320
0.181238 0.070663 -0.182229
0.139735 0.076210 -0.107182
0.135988 0.068794 -0.054215
0.112607 0.083158 -0.076112
0.082553 0.091159 -0.054450
0.202732 -0.029274 0.135519
0.223927 -0.029430 0.194770
0.161827 -0.058607 0.093443
0.136105 -0.068755 0.055542
0.194028 -0.071370 -0.321390
0.204528 -0.071058 -0.269945
0.182006 -0.070394 -0.168423
0.200156 -0.070628 -0.218306
0.024285 -0.100338 -0.035804
0.040671 -0.101230 -0.001216
0.039422 -0.099863 0.039813
-0.021439 -0.092776 -0.071723
-0.039422 -0.099863 -0.039813
0.051249 -0.087100 -0.078415
0.126815 0.029500 -0.459016
0.123692 0.000068 -0.467213
0.175449 0.029497 -0.419204
0.174512 0.000065 -0.427791
0.211593 0.029520 -0.368813
0.213154 0.000118 -0.377166
0.236378 0.000268 -0.319360
0.232084 0.029547 -0.312100
0.219633 0.054235 -0.247970
0.235402 0.029575 -0.253044
0.201913 0.029461 -0.133138
0.223263 0.029516 -0.193482
0.000000 -0.104040 0.000000
-0.040671 -0.101230 0.001216
-0.171712 -0.075727 -0.223183
-0.174785 -0.076756 -0.286885
-0.198205 -0.070980 -0.294770
-0.198400 -0.070433 -0.244653
-0.186573 -0.054235 -0.140125
-0.207533 -0.053728 -0.193326
-0.116406 -0.051834 -0.195912
-0.105924 -0.026503 -0.204504
-0.112217 -0.028161 -0.293944
-0.130991 -0.052830 -0.243989
-0.117213 -0.027955 -0.248126
-0.109055 0.000609 -0.283021
-0.112529 0.001055 -0.254059
-0.098205 0.000254 -0.310031
-0.108470 0.001478 -0.225293
-0.097307 0.001685 -0.198868
-0.079664 0.001579 -0.176425
-0.056792 0.001181 -0.159251
-0.086144 0.054586 -0.356323
-0.099102 0.071643 -0.373810
0.012205 0.054664 -0.386963
0.006870 0.029524 -0.372170
-0.040471 0.028630 -0.365833
-0.029372 0.000037 -0.362842
0.000007 0.000098 -0.366823
-0.056831 0.000009 -0.351327
-0.080367 0.000057 -0.333255
-0.079430 0.029454 -0.341998
-0.099532 0.029567 -0.318579
-0.118462 0.030043 -0.260343
-0.112724 0.029781 -0.290671
-0.106401 0.030148 -0.201795
-0.116276 0.030222 -0.230016
0.112568 -0.029493 -0.290515
0.108704 -0.000272 -0.282670
0.111632 -0.000627 -0.253357
0.115144 -0.029914 -0.229313
0.117916 -0.029707 -0.259953
0.106948 -0.001008 -0.224317
0.095082 -0.001284 -0.197736
0.076698 -0.001372 -0.175410
0.026335 -0.000779 -0.148009
0.053201 -0.001215 -0.158509
-0.002101 -0.000167 -0.144575
-0.030375 0.000536 -0.148400
-0.039461 0.028712 -0.144848
-0.066589 0.029274 -0.157923
-0.089422 0.029797 -0.177400
0.098127 -0.000008 -0.309914
0.080406 0.000135 -0.333294
0.056870 0.000171 -0.351366
0.029399 0.000146 -0.362881
0.088915 0.029524 -0.332240
0.105933 0.029309 -0.306753
0.115105 0.028927 -0.277752
0.116081 0.028450 -0.247112
0.109094 0.027994 -0.216979
0.095160 0.027705 -0.189813
0.075020 0.027650 -0.167486
0.049766 0.027760 -0.151210
0.020777 0.027943 -0.141686
-0.009715 0.028244 -0.139383
-0.078259 0.053884 -0.146760
-0.046994 0.054001 -0.130523
-0.047307 0.074532 -0.106440
-0.087276 0.072541 -0.125410
0.046994 0.097717 -0.042194
0.004524 0.100839 -0.038661
0.129781 0.053376 -0.242779
0.130133 0.053923 -0.276971
0.104684 0.052947 -0.179157
0.120804 0.052947 -0.209368
0.055191 0.054001 -0.136768
0.082514 0.053376 -0.154489
-0.012240 0.054235 -0.124239
0.023095 0.054391 -0.126659
0.069204 0.073946 -0.117838
0.097853 0.071994 -0.138993
-0.004188 0.075937 -0.101405
0.035386 0.075703 -0.105347
0.037416 0.029575 -0.366354
0.065418 0.029590 -0.352693
0.121077 0.054391 -0.309758
0.103044 0.054664 -0.339071
0.171111 0.076245 -0.223634
0.150976 0.070863 -0.280289
0.150117 0.070316 -0.241101
0.139539 0.070082 -0.202810
0.121546 0.070589 -0.167955
0.142545 0.077615 -0.157377
0.117955 0.080386 -0.123146
0.089461 0.084485 -0.097112
0.056440 0.088817 -0.080523
0.016913 0.091432 -0.073263
-0.029641 0.090769 -0.074668
0.116406 -0.051834 0.195912
0.105924 -0.026503 0.204504
0.112217 -0.028161 0.293944
0.117213 -0.027955 0.248126
0.130991 -0.052830 0.243989
0.109055 0.000609 0.283021
0.112529 0.001055 0.254059
0.098205 0.000254 0.310031
0.108470 0.001478 0.225293
0.097307 0.001685 0.198868
0.079664 0.001579 0.176425
0.056792 0.001181 0.159251
0.086144 0.054586 0.356323
0.099102 0.071643 0.373810
-0.012205 0.054664 0.386963
-0.006870 0.029524 0.372170
0.040471 0.028630 0.365833
0.029372 0.000037 0.362842
-0.000007 0.000098 0.366823
0.056831 0.000009 0.351327
0.080367 0.000057 0.333255
0.079430 0.029454 0.341998
0.099532 0.029567 0.318579
0.118462 0.030043 0.260343
0.112724 0.029781 0.290671
0.106401 0.030148 0.201795
0.116276 0.030222 0.230016
-0.112568 -0.029493 0.290515
-0.108704 -0.000272 0.282670
-0.111632 -0.000627 0.253357
-0.115144 -0.029914 0.229313
-0.117916 -0.029707 0.259953
-0.106948 -0.001008 0.224317
-0.095082 -0.001284 0.197736
-0.076698 -0.001372 0.175410
-0.026335 -0.000779 0.148009
-0.053201 -0.001215 0.158509
0.002101 -0.000167 0.144575
0.030375 0.000536 0.148400
0.039461 0.028712 0.144848
0.066589 0.029274 0.157923
0.089422 0.029797 0.177400
-0.098127 -0.000008 0.309914
-0.080406 0.000135 0.333294
-0.056870 0.000171 0.351366
-0.029399 0.000146 0.362881
-0.088915 0.029524 0.332240
-0.105933 0.029309 0.306753
-0.115105 0.028927 0.277752
-0.116081 0.028450 0.247112
-0.109094 0.027994 0.216979
-0.095160 0.027705 0.189813
-0.075020 0.027650 0.167486
-0.049766 0.027760 0.151210
-0.020777 0.027943 0.141686
0.009715 0.028244 0.139383
0.078259 0.053884 0.146760
0.046994 0.054001 0.130523
0.047307 0.074532 0.106440
0.087276 0.072541 0.125410
-0.129781 0.053376 0.242779
-0.130133 0.053923 0.276971
-0.104684 0.052947 0.179157
-0.120804 0.052947 0.209368
-0.055191 0.054001 0.136768
-0.082514 0.053376 0.154489
0.012240 0.054235 0.124239
-0.023095 0.054391 0.126659
-0.069204 0.073946 0.117838
-0.097853 0.071994 0.138993
0.004188 0.075937 0.101405
-0.035386 0.075703 0.105347
-0.037416 0.029575 0.366354
-0.065418 0.029590 0.352693
-0.121077 0.054391 0.309758
-0.103044 0.054664 0.339071
-0.150976 0.070863 0.280289
-0.150117 0.070316 0.241101
-0.139539 0.070082 0.202810
-0.121546 0.070589 0.167955
-0.142545 0.077615 0.157377
-0.117955 0.080386 0.123146
-0.089461 0.084485 0.097112
-0.056440 0.088817 0.080523
-0.016913 0.091432 0.073263
0.029641 0.090769 0.074668
0.198126 0.071214 -0.294770
0.198009 0.070785 -0.244106
0.185480 0.054664 -0.137627
0.206831 0.054001 -0.191998
0.171712 -0.075727 0.223183
0.174785 -0.076756 0.286885
0.198205 -0.070980 0.294770
0.198400 -0.070433 0.244653
0.186573 -0.054235 0.140125
0.207533 -0.053728 0.193326
0.076932 -0.094165 0.036042
0.109953 -0.084368 0.072092
-0.076932 -0.094165 -0.036042
-0.109953 -0.084368 -0.072092
3 0 1 2
3 0 3 1
3 4 2 5
3 2 4 0
3 2 6 5
3 7 8 9
3 10 11 7
3 9 10 7
3 10 9 12
3 13 10 12
3 13 12 14
3 13 15 10
3 15 11 10
3 16 17 18
3 16 19 17
3 20 18 21
3 18 20 16
3 18 22 21
3 23 24 25
3 26 27 23
3 25 26 23
3 26 25 28
3 29 26 28
3 29 28 30
3 29 31 26
3 31 27 26
3 32 33 34
3 32 35 33
3 33 36 34
3 37 38 39
3 37 40 38
3 41 42 40
3 37 41 40
3 43 38 40
3 43 42 44
3 42 43 40
3 45 46 47
3 46 44 47
3 43 44 46
3 48 49 50
3 51 52 53
3 51 54 55
3 51 53 54
3 56 57 58
3 49 48 57
3 56 54 57
3 54 49 57
3 54 56 55
3 59 60 61
3 59 62 60
3 45 47 61
3 63 64 65
3 66 67 68
3 67 69 70
3 68 67 70
3 71 34 72
3 73 71 72
3 73 72 74
3 73 75 71
3 75 76 71
3 71 76 32
3 34 71 32
3 77 78 73
3 74 77 73
3 79 78 77
3 80 79 77
3 73 78 75
3 77 74 81
3 80 81 82
3 80 77 81
3 82 83 80
3 84 85 86
3 86 85 13
3 13 85 15
3 14 86 13
3 85 87 15
3 88 89 90
3 88 91 89
3 92 93 94
3 93 92 95
3 93 91 94
3 93 39 91
3 88 94 91
3 65 96 97
3 97 96 29
3 29 96 31
3 30 97 29
3 96 98 31
3 99 100 101
3 99 102 100
3 103 104 105
3 22 106 104
3 104 106 105
3 107 108 109
3 110 106 108
3 111 112 110
3 107 110 108
3 107 111 110
3 106 113 105
3 113 106 110
3 113 112 114
3 113 114 105
3 112 113 110
3 115 100 116
3 100 98 116
3 100 115 101
3 117 118 119
3 118 117 120
3 118 102 119
3 118 121 102
3 99 119 102
3 122 117 123
3 117 122 111
3 123 117 119
3 122 112 111
3 99 123 119
3 124 125 123
3 112 125 114
3 122 125 112
3 125 122 123
3 99 124 123
3 99 101 124
3 126 127 124
3 125 127 114
3 127 125 124
3 101 126 124
3 115 126 101
3 127 128 129
3 128 127 126
3 103 105 129
3 105 114 129
3 114 127 129
3 130 131 132
3 22 131 21
3 133 134 135
3 6 136 134
3 134 136 135
3 132 137 138
3 130 132 139
3 139 132 138
3 140 141 142
3 6 141 5
3 142 143 144
3 140 142 145
3 145 142 144
3 146 147 148
3 149 136 147
3 150 151 149
3 146 149 147
3 146 150 149
3 136 152 135
3 152 136 149
3 152 151 153
3 152 153 135
3 151 152 149
3 154 89 155
3 89 87 155
3 89 154 90
3 156 92 157
3 92 156 150
3 157 92 94
3 156 151 150
3 88 157 94
3 158 159 157
3 151 159 153
3 156 159 151
3 159 156 157
3 88 158 157
3 88 90 158
3 160 161 158
3 159 161 153
3 161 159 158
3 90 160 158
3 154 160 90
3 161 162 163
3 162 161 160
3 133 135 163
3 135 153 163
3 153 161 163
3 162 164 165
3 164 166 165
3 133 163 165
3 163 162 165
3 142 167 143
3 166 167 168
3 133 165 168
3 165 166 168
3 169 170 171
3 169 172 170
3 170 173 171
3 174 175 121
3 174 176 175
3 177 178 176
3 174 177 176
3 179 175 176
3 179 178 180
3 178 179 176
3 181 182 183
3 182 180 183
3 179 180 182
3 184 185 186
3 187 188 189
3 187 190 191
3 187 189 190
3 192 193 194
3 185 184 193
3 192 190 193
3 190 185 193
3 190 192 191
3 195 196 197
3 181 183 197
3 195 198 196
3 199 200 201
3 200 202 203
3 201 200 203
3 204 171 205
3 206 204 205
3 206 205 207
3 206 208 204
3 208 209 204
3 204 209 169
3 171 204 169
3 210 211 206
3 207 210 206
3 212 211 210
3 213 212 210
3 206 211 208
3 214 215 147
3 136 214 147
3 6 214 136
3 214 6 2
3 215 214 1
3 1 214 2
3 147 215 148
3 7 11 216
3 217 218 11
3 11 218 216
3 217 11 15
3 87 217 15
3 218 217 89
3 91 218 89
3 217 87 89
3 219 220 221
3 128 219 221
3 103 129 221
3 129 128 221
3 132 222 137
3 220 222 223
3 103 221 223
3 221 220 223
3 224 225 108
3 106 224 108
3 22 224 106
3 224 22 18
3 225 224 17
3 17 224 18
3 108 225 109
3 23 27 226
3 227 228 27
3 27 228 226
3 227 27 31
3 98 227 31
3 228 227 100
3 102 228 100
3 227 98 100
3 37 39 229
3 39 93 229
3 229 95 230
3 93 95 229
3 95 231 230
3 230 231 41
3 37 229 230
3 37 230 41
3 146 148 232
3 95 92 233
3 233 92 150
3 146 232 233
3 146 233 150
3 231 95 234
3 234 95 233
3 235 234 232
3 232 234 233
3 148 235 232
3 235 148 53
3 235 53 52
3 235 231 234
3 231 235 52
3 236 237 238
3 137 238 239
3 138 137 239
3 216 240 241
3 35 8 241
3 7 241 8
3 7 216 241
3 240 35 241
3 35 240 33
3 242 243 39
3 243 242 240
3 38 242 39
3 36 242 38
3 242 36 33
3 240 242 33
3 243 240 216
3 218 243 216
3 243 218 91
3 39 243 91
3 244 66 245
3 72 244 74
3 245 66 68
3 66 246 67
3 60 246 247
3 45 61 247
3 61 60 247
3 248 244 72
3 249 248 34
3 34 248 72
3 36 249 34
3 237 250 251
3 239 238 251
3 238 237 251
3 67 252 253
3 67 253 69
3 246 252 67
3 246 60 252
3 60 62 252
3 254 255 253
3 237 255 250
3 255 237 69
3 253 255 69
3 252 254 253
3 62 254 252
3 210 207 256
3 213 256 257
3 213 210 256
3 257 63 213
3 258 259 83
3 83 259 84
3 258 83 82
3 260 64 261
3 174 121 262
3 121 118 262
3 262 120 263
3 118 120 262
3 120 264 263
3 263 264 177
3 174 262 263
3 174 263 177
3 237 265 266
3 237 236 265
3 70 69 266
3 69 237 266
3 267 115 268
3 115 116 268
3 219 128 267
3 267 128 126
3 115 267 126
3 269 270 268
3 219 267 270
3 270 267 268
3 137 271 272
3 137 272 238
3 222 271 137
3 272 236 238
3 222 220 271
3 273 274 271
3 220 273 271
3 219 273 220
3 273 219 270
3 274 236 272
3 271 274 272
3 107 109 275
3 120 117 276
3 276 117 111
3 107 275 276
3 107 276 111
3 264 120 277
3 277 120 276
3 278 277 275
3 275 277 276
3 109 278 275
3 278 109 189
3 278 189 188
3 278 264 277
3 264 278 188
3 279 280 281
3 143 281 282
3 144 143 282
3 283 284 285
3 286 138 239
3 286 251 283
3 286 283 285
3 251 250 283
3 286 239 251
3 287 288 138
3 288 139 138
3 286 287 138
3 286 285 287
3 289 259 290
3 280 291 292
3 280 279 291
3 203 202 292
3 202 280 292
3 293 154 294
3 154 155 294
3 164 162 293
3 293 162 160
3 154 293 160
3 295 296 294
3 164 293 296
3 296 293 294
3 143 297 298
3 143 298 281
3 167 297 143
3 298 279 281
3 167 166 297
3 299 300 297
3 166 299 297
3 164 299 166
3 299 164 296
3 300 279 298
3 297 300 298
3 301 6 134
3 168 302 301
3 133 301 134
3 133 168 301
3 167 302 168
3 167 142 302
3 302 141 301
3 141 6 301
3 142 141 302
3 226 303 304
3 172 24 304
3 23 304 24
3 23 226 304
3 303 172 304
3 172 303 170
3 305 306 121
3 306 305 303
3 175 305 121
3 173 305 175
3 305 173 170
3 303 305 170
3 306 303 226
3 228 306 226
3 306 228 102
3 121 306 102
3 307 199 308
3 205 307 207
3 308 199 201
3 199 309 200
3 196 309 310
3 181 197 310
3 197 196 310
3 311 307 205
3 312 311 171
3 171 311 205
3 173 312 171
3 280 313 314
3 282 281 314
3 281 280 314
3 200 315 316
3 200 316 202
3 309 315 200
3 309 196 315
3 196 198 315
3 317 318 316
3 280 318 313
3 318 280 202
3 316 318 202
3 315 317 316
3 198 317 315
3 319 50 320
3 50 49 320
3 321 322 323
3 324 325 322
3 325 324 53
3 148 325 53
3 215 325 148
3 325 215 323
3 322 325 323
3 320 324 322
3 49 324 320
3 324 49 54
3 53 324 54
3 326 22 104
3 223 327 326
3 103 326 104
3 103 223 326
3 222 327 223
3 222 132 327
3 327 131 326
3 131 22 326
3 132 131 327
3 328 186 329
3 186 185 329
3 330 331 332
3 333 334 331
3 334 333 189
3 109 334 189
3 225 334 109
3 334 225 332
3 331 334 332
3 329 333 331
3 185 333 329
3 333 185 190
3 189 333 190
3 335 258 82
3 336 335 81
3 81 335 82
3 74 336 81
3 244 336 74
3 244 245 336
3 335 336 337
3 336 245 337
3 249 36 338
3 338 36 38
3 43 338 38
3 249 338 339
3 339 338 46
3 338 43 46
3 45 339 46
3 248 249 339
3 340 248 341
3 341 248 339
3 247 340 341
3 45 341 339
3 45 247 341
3 246 340 247
3 246 66 340
3 66 244 340
3 244 248 340
3 51 342 52
3 343 42 41
3 343 231 342
3 342 231 52
3 231 343 41
3 344 345 342
3 42 345 44
3 343 345 42
3 345 343 342
3 51 344 342
3 51 55 344
3 346 347 344
3 44 347 47
3 345 347 44
3 347 345 344
3 55 346 344
3 56 346 55
3 59 348 349
3 349 348 346
3 348 59 61
3 47 348 61
3 347 348 47
3 348 347 346
3 56 349 346
3 349 56 58
3 350 351 58
3 62 59 351
3 59 349 351
3 351 349 58
3 352 254 353
3 254 62 353
3 353 62 351
3 350 353 351
3 250 255 352
3 255 254 352
3 354 64 63
3 354 63 257
3 355 274 356
3 274 273 356
3 356 273 270
3 269 356 270
3 265 236 355
3 236 274 355
3 357 260 261
3 358 68 70
3 358 266 357
3 358 357 261
3 266 265 357
3 358 70 266
3 359 360 361
3 361 360 139
3 360 130 139
3 359 362 363
3 363 362 145
3 362 140 145
3 350 364 365
3 350 58 364
3 58 57 364
3 364 48 365
3 57 48 364
3 48 366 365
3 366 284 365
3 367 352 368
3 250 367 283
3 367 250 352
3 368 352 353
3 350 368 353
3 350 365 368
3 284 367 368
3 367 284 283
3 365 284 368
3 369 370 361
3 362 359 370
3 370 359 361
3 139 369 361
3 139 288 369
3 371 372 373
3 374 144 282
3 374 314 371
3 374 371 373
3 314 313 371
3 374 282 314
3 375 376 144
3 376 145 144
3 374 375 144
3 374 373 375
3 377 300 378
3 300 299 378
3 378 299 296
3 295 378 296
3 291 279 377
3 279 300 377
3 379 289 290
3 380 201 203
3 380 292 379
3 380 379 290
3 292 291 379
3 380 203 292
3 312 173 381
3 381 173 175
3 179 381 175
3 312 381 382
3 382 381 182
3 381 179 182
3 181 382 182
3 311 312 382
3 383 311 384
3 384 311 382
3 310 383 384
3 181 384 382
3 181 310 384
3 309 383 310
3 309 199 383
3 199 307 383
3 307 311 383
3 385 308 386
3 258 335 387
3 387 335 337
3 354 388 389
3 388 354 257
3 390 388 256
3 256 388 257
3 207 390 256
3 307 390 207
3 307 308 390
3 388 390 385
3 389 388 385
3 390 308 385
3 187 391 188
3 392 178 177
3 392 264 391
3 391 264 188
3 264 392 177
3 393 394 391
3 178 394 180
3 392 394 178
3 394 392 391
3 187 393 391
3 187 191 393
3 395 396 393
3 180 396 183
3 394 396 180
3 396 394 393
3 191 395 393
3 192 395 191
3 195 397 398
3 398 397 395
3 397 195 197
3 183 397 197
3 396 397 183
3 397 396 395
3 192 398 395
3 398 192 194
3 399 400 194
3 198 195 400
3 195 398 400
3 400 398 194
3 401 317 402
3 317 198 402
3 402 198 400
3 399 402 400
3 313 318 401
3 318 317 401
3 403 389 385
3 403 385 386
3 403 404 389
3 403 386 387
3 403 337 404
3 403 387 337
3 337 245 404
3 405 406 96
3 406 98 96
3 405 96 65
3 64 405 65
3 405 64 260
3 269 407 408
3 407 406 408
3 269 268 407
3 268 116 407
3 116 98 407
3 98 406 407
3 406 405 408
3 405 260 408
3 409 355 410
3 265 409 357
3 409 265 355
3 410 355 356
3 269 410 356
3 269 408 410
3 260 409 410
3 409 260 357
3 408 260 410
3 63 411 213
3 411 63 65
3 411 412 213
3 213 412 212
3 97 30 413
3 414 415 411
3 414 411 65
3 414 65 97
3 414 413 415
3 414 97 413
3 415 412 411
3 416 417 415
3 413 416 415
3 418 416 413
3 417 412 415
3 419 420 412
3 417 419 412
3 412 420 212
3 421 422 212
3 420 421 212
3 422 211 212
3 330 332 423
3 332 424 423
3 225 424 332
3 424 225 17
3 424 19 423
3 19 424 17
3 425 426 328
3 329 425 328
3 425 329 331
3 425 331 330
3 425 427 426
3 427 425 330
3 428 429 426
3 427 428 426
3 429 428 28
3 28 428 30
3 430 431 30
3 428 430 30
3 431 430 427
3 430 428 427
3 431 418 413
3 30 431 413
3 432 431 427
3 330 432 427
3 330 423 432
3 19 433 423
3 433 418 432
3 423 433 432
3 418 431 432
3 416 418 433
3 434 435 19
3 19 435 433
3 16 434 19
3 417 435 434
3 417 416 435
3 435 416 433
3 419 417 434
3 16 436 437
3 16 437 434
3 20 436 16
3 436 420 437
3 420 419 437
3 437 419 434
3 421 420 436
3 438 439 24
3 172 438 24
3 440 439 438
3 169 441 442
3 169 209 441
3 441 443 442
3 443 440 442
3 440 438 442
3 442 438 172
3 169 442 172
3 444 443 441
3 445 444 209
3 209 444 441
3 446 447 208
3 447 445 209
3 447 209 208
3 448 449 450
3 449 448 211
3 422 449 211
3 448 446 208
3 211 448 208
3 451 452 20
3 20 452 436
3 422 452 451
3 422 421 452
3 452 421 436
3 450 449 451
3 449 422 451
3 453 454 24
3 439 453 24
3 24 454 25
3 455 456 25
3 454 455 25
3 456 429 28
3 25 456 28
3 457 454 458
3 455 454 457
3 454 453 458
3 459 439 460
3 458 453 459
3 453 439 459
3 439 440 460
3 461 443 462
3 440 461 460
3 440 443 461
3 443 444 462
3 463 445 464
3 462 444 463
3 444 445 463
3 445 447 464
3 465 446 466
3 447 465 464
3 447 446 465
3 446 448 466
3 466 448 450
3 467 468 450
3 468 466 450
3 467 450 451
3 467 451 20
3 467 20 21
3 130 469 470
3 470 469 468
3 467 470 468
3 467 21 470
3 21 131 470
3 131 130 470
3 471 472 363
3 360 359 472
3 472 359 363
3 145 471 363
3 145 376 471
3 473 474 459
3 474 458 459
3 473 459 460
3 461 475 476
3 475 461 462
3 473 460 476
3 460 461 476
3 477 478 463
3 475 462 478
3 478 462 463
3 477 463 464
3 465 479 480
3 479 465 466
3 479 466 468
3 469 479 468
3 477 464 480
3 464 465 480
3 481 482 478
3 482 475 478
3 477 481 478
3 480 483 484
3 477 484 481
3 477 480 484
3 479 483 480
3 479 469 483
3 328 485 486
3 328 426 485
3 485 456 486
3 426 429 485
3 429 456 485
3 456 455 486
3 455 457 486
3 487 186 488
3 328 488 186
3 328 486 488
3 457 487 488
3 487 457 458
3 487 458 474
3 486 457 488
3 489 490 491
3 489 184 490
3 490 184 186
3 487 490 186
3 491 490 474
3 490 487 474
3 473 491 474
3 492 489 491
3 476 493 492
3 473 492 491
3 473 476 492
3 475 493 476
3 475 482 493
3 372 494 373
3 489 494 372
3 494 489 492
3 494 495 373
3 495 494 493
3 493 494 492
3 482 495 493
3 373 495 375
3 496 497 376
3 497 496 481
3 496 376 375
3 495 496 375
3 496 495 482
3 496 482 481
3 484 497 481
3 376 497 471
3 498 499 472
3 499 498 483
3 498 472 471
3 497 498 471
3 498 497 484
3 483 498 484
3 469 499 483
3 130 499 469
3 130 360 499
3 499 360 472
3 83 500 80
3 500 83 84
3 500 501 80
3 80 501 79
3 86 14 502
3 503 501 500
3 504 503 500
3 504 500 84
3 504 84 86
3 504 502 503
3 504 86 502
3 505 506 503
3 502 505 503
3 507 505 502
3 506 501 503
3 508 509 501
3 506 508 501
3 501 509 79
3 510 511 79
3 509 510 79
3 511 78 79
3 321 323 512
3 323 513 512
3 215 513 323
3 513 215 1
3 513 3 512
3 3 513 1
3 514 515 319
3 320 514 319
3 514 320 322
3 514 322 321
3 514 516 515
3 516 514 321
3 517 518 515
3 516 517 515
3 518 517 12
3 12 517 14
3 519 520 14
3 517 519 14
3 520 519 516
3 519 517 516
3 520 507 502
3 14 520 502
3 521 520 516
3 321 521 516
3 321 512 521
3 3 522 512
3 522 507 521
3 512 522 521
3 507 520 521
3 505 507 522
3 523 524 3
3 3 524 522
3 0 523 3
3 506 524 523
3 506 505 524
3 524 505 522
3 508 506 523
3 0 525 526
3 0 526 523
3 4 525 0
3 525 509 526
3 509 508 526
3 526 508 523
3 510 509 525
3 527 528 8
3 35 527 8
3 529 528 527
3 32 530 531
3 32 76 530
3 530 532 531
3 532 529 531
3 529 527 531
3 531 527 35
3 32 531 35
3 533 532 530
3 534 533 76
3 76 533 530
3 535 536 75
3 536 534 76
3 536 76 75
3 537 538 539
3 538 537 78
3 511 538 78
3 537 535 75
3 78 537 75
3 540 541 4
3 4 541 525
3 511 541 540
3 511 510 541
3 541 510 525
3 539 538 540
3 538 511 540
3 542 543 8
3 528 542 8
3 8 543 9
3 544 545 9
3 543 544 9
3 545 518 12
3 9 545 12
3 546 543 547
3 544 543 546
3 543 542 547
3 548 528 549
3 547 542 548
3 542 528 548
3 528 529 549
3 550 532 551
3 529 550 549
3 529 532 550
3 532 533 551
3 552 534 553
3 551 533 552
3 533 534 552
3 534 536 553
3 554 535 555
3 536 554 553
3 536 535 554
3 535 537 555
3 555 537 539
3 556 557 539
3 557 555 539
3 556 539 540
3 556 540 4
3 556 4 5
3 140 558 559
3 559 558 557
3 556 559 557
3 556 5 559
3 5 141 559
3 141 140 559
3 560 561 548
3 561 547 548
3 560 548 549
3 550 562 563
3 562 550 551
3 560 549 563
3 549 550 563
3 564 565 552
3 562 551 565
3 565 551 552
3 564 552 553
3 554 566 567
3 566 554 555
3 566 555 557
3 558 566 557
3 564 553 567
3 553 554 567
3 568 569 565
3 569 562 565
3 564 568 565
3 567 570 571
3 564 571 568
3 564 567 571
3 566 570 567
3 566 558 570
3 319 572 573
3 319 515 572
3 572 545 573
3 515 518 572
3 518 545 572
3 545 544 573
3 544 546 573
3 574 50 575
3 319 575 50
3 319 573 575
3 546 574 575
3 574 546 547
3 574 547 561
3 573 546 575
3 366 576 577
3 366 48 576
3 576 48 50
3 574 576 50
3 577 576 561
3 576 574 561
3 560 577 561
3 578 366 577
3 563 579 578
3 560 578 577
3 560 563 578
3 562 579 563
3 562 569 579
3 284 580 285
3 366 580 284
3 580 366 578
3 580 581 285
3 581 580 579
3 579 580 578
3 569 581 579
3 285 581 287
3 582 583 288
3 583 582 568
3 582 288 287
3 581 582 287
3 582 581 569
3 582 569 568
3 571 583 568
3 288 583 369
3 584 585 370
3 585 584 570
3 584 370 369
3 583 584 369
3 584 583 571
3 570 584 571
3 558 585 570
3 140 585 558
3 140 362 585
3 585 362 370
3 399 586 587
3 399 194 586
3 194 193 586
3 586 184 587
3 193 184 586
3 184 489 587
3 489 372 587
3 588 401 589
3 313 588 371
3 588 313 401
3 589 401 402
3 399 589 402
3 399 587 589
3 372 588 589
3 588 372 371
3 587 372 589
3 590 591 85
3 591 87 85
3 590 85 84
3 259 590 84
3 590 259 289
3 295 592 593
3 592 591 593
3 295 294 592
3 294 155 592
3 155 87 592
3 87 591 592
3 591 590 593
3 590 289 593
3 594 377 595
3 291 594 379
3 594 291 377
3 595 377 378
3 295 595 378
3 295 593 595
3 289 594 595
3 594 289 379
3 593 289 595
3 308 596 386
3 597 596 201
3 596 308 201
3 380 597 201
3 258 596 597
3 596 258 387
3 386 596 387
3 380 290 597
3 290 259 597
3 259 258 597
3 245 598 404
3 599 598 68
3 598 245 68
3 358 599 68
3 354 598 599
3 598 354 389
3 404 598 389
3 358 261 599
3 261 64 599
3 64 354 599
